27/02/2020 04:06:10 [INFO] Caching completed. Took 1 ms
27/02/2020 04:06:11 [DEBUG] Loaded placeholder: facebook
27/02/2020 04:06:11 [INFO] Loading placeholder [FireworkEffect] ...
27/02/2020 04:06:12 [INFO] Loaded 2447 of the 2447 placholders
27/02/2020 04:06:12 [INFO] Creating new custom effect: example1
27/02/2020 04:06:11 [DEBUG] Loaded placeholder: firework
27/02/2020 04:06:12 [INFO] Loading custom effect 'example2' ...
27/02/2020 04:06:12 [INFO] Checking for placeholder updates ...
27/02/2020 04:06:12 [INFO] Loading custom effect 'example1' ...
27/02/2020 04:06:10 [INFO] Loading placeholders and event triggers ...
27/02/2020 04:06:11 [INFO] Loading placeholder [Geographical] ...
27/02/2020 04:06:12 [INFO] Creating new custom effect: example3
27/02/2020 04:06:12 [INFO] Loading custom effect 'example3' ...
27/02/2020 04:06:12 [INFO] Creating new custom effect: example2
27/02/2020 04:06:10 [INFO] Loading internal placeholders ...
27/02/2020 04:06:11 [DEBUG] Loaded placeholder: geographical
27/02/2020 04:06:12 [INFO] Adding air bar group 'default' ...
27/02/2020 04:06:12 [INFO] Toggle persistence is disabled!
27/02/2020 04:06:10 [DEBUG] Loaded placeholder: CustomPlaceholders
27/02/2020 04:06:11 [INFO] Loading placeholder [Hotbar] ...
27/02/2020 04:06:11 [DEBUG] Loaded placeholder: hotbar
27/02/2020 04:06:12 [INFO] Adding command 'airbar'
27/02/2020 04:06:11 [INFO] Loading placeholder [JavaInfo] ...
27/02/2020 04:06:12 [DEBUG] 	Adding sub command 'toggle'
27/02/2020 04:06:12 [DEBUG] 	Adding sub command 'placeholders'
27/02/2020 04:06:10 [DEBUG] Loaded placeholder: MySQL
27/02/2020 04:06:12 [DEBUG] 	Adding sub command 'help'
27/02/2020 04:06:12 [DEBUG] 	Adding sub command 'parse'
27/02/2020 04:06:12 [DEBUG] 	Adding sub command 'announcementlist'
27/02/2020 04:06:12 [DEBUG] 	Adding sub command 'about'
27/02/2020 04:06:12 [DEBUG] 	Adding sub command 'reload'
27/02/2020 04:06:12 [DEBUG] 	Adding sub command 'permissions'
27/02/2020 04:06:11 [DEBUG] Loaded placeholder: java
27/02/2020 04:06:12 [DEBUG] 	Adding sub command 'hideall'
27/02/2020 04:06:11 [INFO] Loading placeholder [Memory] ...
27/02/2020 04:06:12 [DEBUG] 	Adding sub command 'show'
27/02/2020 04:06:12 [DEBUG] 	Adding sub command 'hide'
27/02/2020 04:06:12 [DEBUG] 	Adding sub command 'debug'
27/02/2020 04:06:11 [INFO] Loading placeholder [Multiverse-Core] ...
27/02/2020 04:06:11 [INFO] Loading placeholder [Permissions] ...
27/02/2020 04:06:10 [INFO] Loading placeholder [ASkyBlock] ...
27/02/2020 04:06:11 [DEBUG] Loaded placeholder: memory
27/02/2020 04:06:10 [DEBUG] Loaded placeholder: askyblock
27/02/2020 04:06:10 [INFO] Fetching available placeholders from server ...
27/02/2020 04:06:11 [INFO] Loading placeholder [PlaceholderAPI] ...
27/02/2020 04:06:11 [DEBUG] Loaded placeholder: multiverse
27/02/2020 04:06:11 [DEBUG] Loaded placeholder: permissions
27/02/2020 04:06:10 [INFO] Loading placeholder [Armor] ...
27/02/2020 04:06:12 [INFO] Loading event hook: WorldGuard Region ...
27/02/2020 04:06:12 [INFO] Loading event hook: WorldGuard Region ...
27/02/2020 04:06:12 [INFO] Loading placeholder [WorldGuard] ...
27/02/2020 04:06:12 [DEBUG] Loaded placeholder: worldguard
27/02/2020 04:06:11 [INFO] Loading placeholder [Player] ...
27/02/2020 04:06:12 [DEBUG] Loaded placeholder: world
27/02/2020 04:06:12 [INFO] Loading placeholder [World] ...
27/02/2020 04:06:12 [INFO] Loading event hook: Vanilla player join ...
27/02/2020 04:06:12 [INFO] Loading event hook: Vanilla Combat hook ...
27/02/2020 04:06:12 [INFO] Loading event hook: Vanilla Block place hook ...
27/02/2020 04:06:12 [INFO] Loading event hook: Vanilla Block break hook ...
27/02/2020 04:06:12 [INFO] Loading event hook: Vanilla player rejoin ...
27/02/2020 04:06:12 [INFO] Loading event hook: Vanilla Create portal hook ...
27/02/2020 04:06:12 [INFO] Loading event hook: Vanilla Death hook ...
27/02/2020 04:06:12 [INFO] Loading event hook: Vanilla player first join ...
27/02/2020 04:06:12 [INFO] Loading event hook: Vanilla player join ...
27/02/2020 04:06:12 [DEBUG] Loaded placeholder: vanillaevents
27/02/2020 04:06:12 [INFO] Loading event hook: Vanilla Combat hook ...
27/02/2020 04:06:12 [INFO] Loading event hook: Vanilla Block break hook ...
27/02/2020 04:06:11 [DEBUG] Loaded placeholder: player
27/02/2020 04:06:11 [INFO] Loading placeholder [PlayerPoints] ...
27/02/2020 04:06:10 [DEBUG] Loaded placeholder: armor
27/02/2020 04:06:12 [INFO] Loading event hook: Vanilla Death hook ...
27/02/2020 04:06:12 [INFO] Loading event hook: Vanilla player rejoin ...
27/02/2020 04:06:12 [INFO] Loading event hook: Vanilla player first join ...
27/02/2020 04:06:10 [INFO] Loading placeholder [Bukkit] ...
27/02/2020 04:06:12 [DEBUG] Loaded placeholder: sound
27/02/2020 04:06:12 [INFO] Loading placeholder [Sound Effects] ...
27/02/2020 04:06:12 [DEBUG] Loaded placeholder: serverpinger
27/02/2020 04:06:12 [DEBUG] Loaded placeholder: statistics
27/02/2020 04:06:12 [INFO] Loading placeholder [ServerPinger] ...
27/02/2020 04:06:12 [DEBUG] Loaded placeholder: redisbungee
27/02/2020 04:06:12 [DEBUG] Loaded placeholder: tickspersecond
27/02/2020 04:06:11 [DEBUG] Loaded placeholder: placeholderapi
27/02/2020 04:06:12 [DEBUG] Loaded placeholder: unicode
27/02/2020 04:06:11 [DEBUG] Loaded placeholder: playerpoints
27/02/2020 04:06:10 [INFO] Loading placeholder [BungeeCord] ...
27/02/2020 04:06:11 [INFO] Loading placeholder [RedisBungee] ...
27/02/2020 04:06:12 [INFO] Loading placeholder [Unicode Characters] ...
27/02/2020 04:06:12 [DEBUG] Loaded placeholder: twitter
27/02/2020 04:06:11 [INFO] Loading placeholder [Previous Names] ...
27/02/2020 04:06:11 [DEBUG] Loaded placeholder: previousnames
27/02/2020 04:06:10 [DEBUG] Loaded placeholder: bungeecord
27/02/2020 04:06:12 [INFO] Loading placeholder [Statistics] ...
27/02/2020 04:06:12 [INFO] Loading placeholder [TicksPerSecond] ...
27/02/2020 04:06:10 [DEBUG] Loaded placeholder: color
27/02/2020 04:06:12 [INFO] Loading placeholder [Twitter] ...
27/02/2020 04:06:10 [INFO] Loading placeholder [Color] ...
27/02/2020 04:06:10 [INFO] Loading placeholder [CommandPlaceholderPack] ...
27/02/2020 04:06:10 [DEBUG] Loaded placeholder: command
27/02/2020 04:06:12 [INFO] Loading placeholder [VanillaEvents] ...
27/02/2020 04:06:10 [INFO] Loading placeholder [Compass placeholders] ...
27/02/2020 04:06:10 [DEBUG] Loaded placeholder: compass
27/02/2020 04:06:12 [INFO] Loading event hook: Vanilla Block place hook ...
27/02/2020 04:06:10 [INFO] Loading placeholder [Economy] ...
27/02/2020 04:06:10 [INFO] Loading placeholder [Facebook] ...
27/02/2020 04:06:10 [DEBUG] Loaded placeholder: essentials
27/02/2020 04:06:10 [INFO] Loading placeholder [Essentials] ...
27/02/2020 04:06:10 [DEBUG] Loaded placeholder: entities
27/02/2020 04:06:10 [INFO] Loading placeholder [Entities] ...
27/02/2020 04:06:10 [DEBUG] Loaded placeholder: playereffects
27/02/2020 04:06:10 [DEBUG] Loaded placeholder: bukkit
27/02/2020 04:06:10 [INFO] Loading placeholder [Effects] ...
27/02/2020 04:06:12 [INFO] Loading event hook: Vanilla Create portal hook ...
27/02/2020 04:06:09 [INFO] Loading messages ...
27/02/2020 04:06:09 [INFO] Loading language file: lang_en
27/02/2020 04:06:10 [INFO] Starting memory caching for 1.8 boss bar ...
27/02/2020 04:06:10 [DEBUG] Loaded placeholder: economy
